<?xml version="1.0" encoding="utf-8"?>
<!-- Generator: Adobe Illustrator 24.0.0, SVG Export Plug-In . SVG Version: 6.00 Build 0)  -->
<svg version="1.1" id="vp" xmlns="http://www.w3.org/2000/svg" xmlns:xlink="http://www.w3.org/1999/xlink" x="0px" y="0px"
	 viewBox="0 0 612 792" style="enable-background:new 0 0 612 792;" xml:space="preserve">
<g>
	<path d="M601.8,273.5c-4-2.7-10.7-2.7-14.7,0l-96.3,52.2v-44.2c0-8-6.7-14.7-14.7-14.7H452c30.8-24.1,49.5-62.9,49.5-104.4
		c0-73.6-60.2-133.8-133.8-133.8c-62.9,0-116.4,44.2-131.1,103c-18.7-22.7-46.8-36.1-77.6-36.1c-56.2,0-101.7,45.5-101.7,101.7
		c0,28.1,10.7,53.5,29.4,70.9H73.3c-8,0-14.7,6.7-14.7,14.7v68.2H19.8c-8,0-14.7,6.7-14.7,14.7v58.9c0,8,6.7,14.7,14.7,14.7h37.5
		v68.2c0,8,6.7,14.7,14.7,14.7h176.6L167,677.6c-4,6.7-1.3,16.1,6.7,20.1c2.7,1.3,4,1.3,6.7,1.3c5.4,0,10.7-2.7,13.4-8l78.9-152.5
		L351.6,691c2.7,5.4,8,8,13.4,8c2.7,0,5.4,0,6.7-1.3c6.7-4,10.7-13.4,6.7-20.1l-81.6-155.2h176.6c8,0,14.7-6.7,14.7-14.7v-44.2
		l96.3,52.2c2.7,1.3,4,1.3,6.7,1.3c2.7,0,5.4-1.3,8-2.7c4-2.7,6.7-8,6.7-13.4V286.9C608.5,281.5,605.8,277.5,601.8,273.5z
		 M366.3,58.1c57.5,0,104.4,46.8,104.4,104.4s-46.8,104.4-104.4,104.4S262,220,262,162.5S308.8,58.1,366.3,58.1z M282,266.8h-52.2
		c9.4-9.4,17.4-21.4,22.7-33.4C260.6,245.4,270,256.1,282,266.8z M86.7,194.6c0-38.8,32.1-70.9,70.9-70.9s70.9,32.1,70.9,70.9
		s-32.1,70.9-70.9,70.9S86.7,234.7,86.7,194.6z M34.5,408.7v-29.4h22.7v29.4H34.5z M460,491.6H274l0,0l0,0l0,0H88v-68.2v-58.9v-68.2
		h373.3v54.9v85.6v54.9H460z M579.1,475.6l-88.3-48.2v-66.9l88.3-48.2V475.6z"/>
	<path d="M157.6,149.1c-25.4,0-45.5,20.1-45.5,45.5s20.1,45.5,45.5,45.5s45.5-20.1,45.5-45.5S183,149.1,157.6,149.1z M157.6,213.3
		c-10.7,0-18.7-8-18.7-18.7c0-10.7,8-18.7,18.7-18.7c10.7,0,18.7,8,18.7,18.7C176.3,205.3,168.3,213.3,157.6,213.3z"/>
	<path d="M366.3,226.7c36.1,0,65.6-29.4,65.6-65.6s-29.4-65.6-65.6-65.6s-65.6,29.4-65.6,65.6C300.8,198.6,330.2,226.7,366.3,226.7z
		 M366.3,126.3c20.1,0,34.8,16.1,34.8,34.8s-14.7,36.1-34.8,36.1c-20.1,0-34.8-16.1-34.8-34.8S346.3,126.3,366.3,126.3z"/>
	<path d="M318.2,340.4H154.9c-8,0-14.7,6.7-14.7,14.7v78.9c0,8,6.7,14.7,14.7,14.7h163.2c8,0,14.7-6.7,14.7-14.7v-78.9
		C332.9,345.8,326.2,340.4,318.2,340.4z M303.5,419.4H169.7v-50.8h133.8V419.4z"/>
	<circle cx="397.1" cy="368.5" r="14.7"/>
	<circle cx="397.1" cy="418" r="14.7"/>
</g>
</svg>
